{
  "bpp": [
            0.205976087782118058,
            0.2524092746310764,
            0.30372950575086805,
            0.36495271809895833,
            0.44013621690538194,
            0.52129593912760416,
            0.61254446072048612,
            0.7149306098090278,
            0.83354085286458331,
            0.96240842013888888,
            1.1006865776909722,
            1.26021290418836806,
            1.44020064290364587,
            1.64062198893229163,
            1.88017240397135417,
            2.14001909722222223
  ],
  "psnr": [
            30.418649959151264,
            31.21245340149888,
            32.0619043589516,
            32.93701001552782,
            33.83235843065278,
            34.73730906275873,
            35.66964386728706,
            36.60700563077278,
            37.550436500408416,
            38.4941323892689,
            39.42953415331109,
            40.342840786592966,
            41.29161001225912,
            42.249509088905114,
            43.22742526488673,
            44.194234397780725
  ]
}